<?xml version="1.0" encoding="utf-8"?>
<!-- Generator: Adobe Illustrator 27.0.1, SVG Export Plug-In . SVG Version: 6.00 Build 0)  -->
<svg version="1.1" id="Ñëîé_1" xmlns="http://www.w3.org/2000/svg" xmlns:xlink="http://www.w3.org/1999/xlink" x="0px" y="0px"
	 width="800px" height="578.8px" viewBox="0 0 800 578.8" style="enable-background:new 0 0 800 578.8;" xml:space="preserve">
<style type="text/css">
	.st0{fill:#B2B2B2;}
	.st1{fill:#2D2D2D;}
	.st2{fill:#FFFFFF;}
	.st3{fill:#E2E2E1;}
	.st4{fill:#C0C0C0;}
	.st5{fill:#A0A09F;}
	.st6{opacity:0.25;}
	.st7{fill:#3B3D41;}
	.st8{fill:#F1644A;}
	.st9{fill:#00C994;}
	.st10{fill:#FF5B45;}
	.st11{fill:#DDDDDD;}
	.st12{fill:#00996D;}
</style>
<g>
	<g>
		<path class="st0" d="M795,538.3c0-18.6-176.8-33.8-395-33.8c-218.2,0-395,15.1-395,33.8C5,556.9,181.8,572,400,572
			C618.2,572,795,556.9,795,538.3z"/>
		<g>
			<g>
				<g>
					<g>
						<g>
							<g>
								<g>
									<path class="st1" d="M695.3,392.8h-580V42.1c0-19.5,15.8-35.3,35.3-35.3H660c19.5,0,35.3,15.8,35.3,35.3V392.8z"/>
								</g>
							</g>
						</g>
						<g>
							<g>
								<rect x="144.2" y="34.3" class="st2" width="522.3" height="339.4"/>
							</g>
						</g>
						<g>
							<g>
								<path class="st2" d="M762.6,534.6L762.6,534.6L762.6,534.6C762.6,534.6,762.5,534.6,762.6,534.6l-67.2-137.7
									c-2-3.8-11.4-6.8-20.9-6.8h-270h0h-270c-9.6,0-19,3-21,6.8L46.4,534.5c0,0,0,0,0,0l0,0h0c-0.1,0.3-0.2,0.6-0.2,1v4.9
									c0,1.4,1.2,2.6,2.6,2.6h15.4h11.1h329.2h0h329.2h11.1h15.4c1.5,0,2.6-1.2,2.6-2.6v-4.9C762.8,535.2,762.7,534.9,762.6,534.6
									z"/>
							</g>
						</g>
						<g>
							<g>
								<path class="st3" d="M762.6,528.4L762.6,528.4L762.6,528.4C762.6,528.4,762.5,528.4,762.6,528.4l-67.2-137.7
									c-2-3.8-11.4-6.8-20.9-6.8h-270h0h-270c-9.6,0-19,3.1-21,6.8L46.4,528.4c0,0,0,0,0,0l0,0h0c-0.1,0.3-0.2,0.6-0.2,1v4.9
									c0,1.4,1.2,2.6,2.6,2.6h15.4h11.1h329.2h0h329.2h11.1h15.4c1.5,0,2.6-1.2,2.6-2.6v-4.9C762.8,529.1,762.7,528.8,762.6,528.4
									z"/>
							</g>
						</g>
						<g>
							<g>
								<g>
									<path class="st4" d="M686.8,483.3c0.5,1.1-1.8,2-5.2,2H127.3c-3.4,0-5.7-0.9-5.2-2l34.7-86.4c0.5-1.1,3.3-2,6.2-2h483
										c2.9,0,5.7,0.9,6.2,2L686.8,483.3z"/>
								</g>
							</g>
							<g>
								<g>
									<path class="st5" d="M645.9,394.9H163c-2.9,0-5.7,0.9-6.2,2l-1.3,3c0.5-1.1,3.3-2,6.2-2h485.6c2.9,0,5.7,0.9,6.2,2l-1.3-3
										C651.6,395.8,648.9,394.9,645.9,394.9z"/>
								</g>
							</g>
							<g>
								<g>
									<polygon class="st5" points="492.7,533.7 316.2,533.7 315.8,537 493.1,537 									"/>
								</g>
							</g>
							<g>
								<g>
									<g>
										<path class="st4" d="M492,524.5c0.2,1.1-2.5,1.9-5.9,1.9H322.8c-3.5,0-6.1-0.9-6-1.9l4.6-30.7c0.1-1.1,2.9-2,6.1-2h153.7
											c3.2,0,5.9,0.9,6.1,2L492,524.5z"/>
									</g>
								</g>
								<g>
									<g>
										<path class="st5" d="M326.9,494.2h155.5c2.2,0,4.1,0.4,5.2,1l-0.2-1.3c-0.2-1.1-2.9-2-6.1-2H327.6c-3.2,0-6,0.9-6.1,2
											l-0.2,1.6C322.2,494.7,324.4,494.2,326.9,494.2z"/>
									</g>
								</g>
								<g>
									<g>
										<path class="st5" d="M481.3,491.9H327.6c-3.2,0-6,0.9-6.1,2l-0.3,1.7c0.2-1.1,2.9-1.9,6.2-1.9h154.1c3.2,0,6,0.9,6.1,1.9
											l-0.2-1.7C487.3,492.7,484.5,491.9,481.3,491.9z"/>
									</g>
								</g>
								<g class="st6">
									<g>
										<path class="st2" d="M428.9,526.4h57.2c3.4,0,6.1-0.9,5.9-1.9l-4.6-30.7c-0.2-1.1-2.9-2-6.1-2H355.7L428.9,526.4z"/>
									</g>
								</g>
							</g>
							<g>
								<g>
									<polygon class="st1" points="617.1,389.4 191.8,389.4 193.9,383.9 615,383.9 									"/>
								</g>
							</g>
							<g>
								<g>
									<g>
										<g>
											<path class="st7" d="M205.6,436c-0.2,0.5-1.5,1-3,1h-42.7c-1.5,0-2.5-0.4-2.3-1l3.5-8.5c0.2-0.5,1.6-1,3-1h41.9
												c1.5,0,2.5,0.4,2.3,1L205.6,436z"/>
										</g>
									</g>
								</g>
								<g>
									<g>
										<g>
											<path class="st7" d="M209,450.5c-0.2,0.5-1.6,1-3.1,1h-51.3c-1.5,0-2.6-0.4-2.3-1l3.6-8.5c0.2-0.5,1.6-1,3.1-1h50.4
												c1.5,0,2.6,0.4,2.4,1L209,450.5z"/>
										</g>
									</g>
								</g>
								<g>
									<g>
										<g>
											<path class="st7" d="M223.8,465c-0.1,0.5-1.5,0.9-3.1,0.9h-71.4c-1.5,0-2.6-0.4-2.4-0.9l3.5-8.5c0.2-0.5,1.6-1,3.2-1
												h70.2c1.6,0,2.7,0.4,2.5,1L223.8,465z"/>
										</g>
									</g>
								</g>
								<g>
									<g>
										<g>
											<path class="st7" d="M656.8,450.5c0.2,0.5-0.8,1-2.4,1h-54.8c-1.5,0-2.9-0.4-3.1-1l-2.7-8.5c-0.2-0.5,0.9-1,2.4-1h53.8
												c1.5,0,2.9,0.4,3.1,1L656.8,450.5z"/>
										</g>
									</g>
								</g>
								<g>
									<g>
										<g>
											<path class="st7" d="M662,465c0.2,0.5-0.9,0.9-2.4,0.9h-75.4c-1.6,0-2.9-0.4-3.1-0.9l-2.4-8.5c-0.2-0.5,1-1,2.5-1h74.1
												c1.5,0,3,0.4,3.2,1L662,465z"/>
										</g>
									</g>
								</g>
								<g>
									<g>
										<g>
											<path class="st7" d="M561.6,479.5c0.1,0.5-1,0.9-2.6,0.9h-25.3c-1.6,0-3-0.4-3.1-0.9l-1.7-8.5c-0.1-0.5,1.1-1,2.6-1h24.9
												c1.6,0,3,0.4,3.1,1L561.6,479.5z"/>
										</g>
									</g>
								</g>
								<g>
									<g>
										<g>
											<g>
												<path class="st7" d="M172.6,479.5c-0.2,0.5-1.7,0.9-3.3,0.9h-25.3c-1.6,0-2.7-0.4-2.5-0.9l3.6-8.5c0.2-0.5,1.7-1,3.2-1
													h25c1.6,0,2.7,0.4,2.5,1L172.6,479.5z"/>
											</g>
										</g>
									</g>
									<g>
										<g>
											<g>
												<path class="st7" d="M211.8,479.5c-0.2,0.5-1.6,0.9-3.2,0.9h-25.4c-1.6,0-2.7-0.4-2.6-0.9l3-8.5c0.2-0.5,1.6-1,3.2-1
													h24.9c1.6,0,2.7,0.4,2.5,1L211.8,479.5z"/>
											</g>
										</g>
									</g>
									<g>
										<g>
											<g>
												<path class="st7" d="M251.4,479.5c-0.1,0.5-1.5,0.9-3.1,0.9h-25.3c-1.6,0-2.8-0.4-2.6-0.9l2.5-8.5c0.2-0.5,1.6-1,3.1-1
													h24.9c1.6,0,2.7,0.4,2.6,1L251.4,479.5z"/>
											</g>
										</g>
									</g>
									<g>
										<g>
											<g>
												<path class="st7" d="M300.3,479.5c-0.1,0.5-1.5,0.9-3,0.9h-34.7c-1.6,0-2.8-0.4-2.7-0.9l1.9-8.5c0.1-0.5,1.5-1,3.1-1
													H299c1.6,0,2.8,0.4,2.7,1L300.3,479.5z"/>
											</g>
										</g>
									</g>
								</g>
								<g>
									<g>
										<g>
											<path class="st7" d="M473.2,479.5c0.1,0.5-1.3,1-2.9,1H311.6c-1.7,0-2.9-0.5-2.9-1l1.3-8.4c0.1-0.5,1.5-1,3.1-1h155.9
												c1.6,0,3,0.5,3.1,1L473.2,479.5z"/>
										</g>
									</g>
								</g>
								<g>
									<g>
										<g>
											<path class="st7" d="M522,479.5c0.1,0.5-1.1,0.9-2.7,0.9h-34.7c-1.6,0-2.9-0.4-3-0.9l-1-8.5c-0.1-0.5,1.2-1,2.7-1h34.1
												c1.6,0,2.9,0.4,3,1L522,479.5z"/>
										</g>
									</g>
								</g>
								<g>
									<g>
										<g>
											<g>
												<path class="st7" d="M191.5,421.4c-0.2,0.5-1.6,1-3,1h-23.3c-1.5,0-2.4-0.4-2.2-1l3.5-8.4c0.2-0.5,1.6-1,3-1h22.9
													c1.4,0,2.5,0.4,2.3,1L191.5,421.4z"/>
											</g>
										</g>
										<g>
											<g>
												<path class="st7" d="M227.9,421.4c-0.2,0.5-1.5,1-2.9,1h-23.3c-1.5,0-2.5-0.4-2.3-1l3-8.4c0.2-0.5,1.5-1,3-1h22.9
													c1.4,0,2.5,0.4,2.3,1L227.9,421.4z"/>
											</g>
										</g>
										<g>
											<g>
												<path class="st7" d="M264.2,421.4c-0.1,0.5-1.4,1-2.9,1H238c-1.5,0-2.5-0.4-2.4-1l2.5-8.4c0.1-0.5,1.5-1,2.9-1h22.9
													c1.4,0,2.5,0.4,2.4,1L264.2,421.4z"/>
											</g>
										</g>
										<g>
											<g>
												<path class="st7" d="M300.5,421.4c-0.1,0.5-1.4,1-2.9,1h-23.3c-1.5,0-2.5-0.4-2.4-1l1.9-8.4c0.1-0.5,1.4-1,2.8-1h22.8
													c1.5,0,2.5,0.4,2.5,1L300.5,421.4z"/>
											</g>
										</g>
										<g>
											<g>
												<path class="st7" d="M336.9,421.4c-0.1,0.5-1.3,1-2.8,1h-23.3c-1.5,0-2.6-0.4-2.5-1l1.4-8.4c0.1-0.5,1.3-1,2.8-1h22.9
													c1.4,0,2.6,0.4,2.5,1L336.9,421.4z"/>
											</g>
										</g>
										<g>
											<g>
												<path class="st7" d="M373.2,421.4c0,0.5-1.2,1-2.7,1h-23.3c-1.5,0-2.6-0.4-2.6-1l0.9-8.4c0.1-0.5,1.3-1,2.7-1h22.9
													c1.4,0,2.6,0.4,2.5,1L373.2,421.4z"/>
											</g>
										</g>
										<g>
											<g>
												<path class="st7" d="M409.5,421.4c0,0.5-1.2,1-2.7,1h-23.3c-1.5,0-2.7-0.4-2.6-1l0.3-8.4c0-0.5,1.2-1,2.6-1h22.9
													c1.4,0,2.6,0.4,2.6,1L409.5,421.4z"/>
											</g>
										</g>
										<g>
											<g>
												<path class="st7" d="M445.9,421.4c0,0.5-1.1,1-2.6,1H420c-1.5,0-2.7-0.4-2.7-1l-0.2-8.4c0-0.5,1.1-1,2.6-1h22.9
													c1.4,0,2.6,0.4,2.7,1L445.9,421.4z"/>
											</g>
										</g>
										<g>
											<g>
												<path class="st7" d="M482.2,421.4c0.1,0.5-1.1,1-2.5,1h-23.3c-1.5,0-2.7-0.4-2.7-1l-0.7-8.4c0-0.5,1.1-1,2.5-1h22.9
													c1.4,0,2.6,0.4,2.7,1L482.2,421.4z"/>
											</g>
										</g>
										<g>
											<g>
												<path class="st7" d="M518.5,421.4c0.1,0.5-1,1-2.5,1h-23.3c-1.5,0-2.7-0.4-2.8-1l-1.3-8.4c-0.1-0.5,1-1,2.5-1h22.8
													c1.4,0,2.7,0.4,2.8,1L518.5,421.4z"/>
											</g>
										</g>
										<g>
											<g>
												<path class="st7" d="M554.9,421.4c0.2,0.5-0.9,1-2.4,1h-23.3c-1.5,0-2.7-0.4-2.8-1l-1.8-8.4c-0.1-0.5,0.9-1,2.4-1h22.9
													c1.4,0,2.7,0.4,2.8,1L554.9,421.4z"/>
											</g>
										</g>
										<g>
											<g>
												<path class="st7" d="M591.2,421.4c0.2,0.5-0.9,1-2.3,1h-23.3c-1.5,0-2.8-0.4-2.9-1l-2.3-8.4c-0.1-0.5,0.9-1,2.3-1h22.9
													c1.4,0,2.7,0.4,2.9,1L591.2,421.4z"/>
											</g>
										</g>
									</g>
									<g>
										<g>
											<g>
												<path class="st7" d="M645.9,421.4c0.2,0.5-0.8,1-2.3,1h-43.1c-1.5,0-2.8-0.4-3-1l-2.8-8.4c-0.2-0.5,0.8-1,2.3-1h42.3
													c1.4,0,2.8,0.4,3,1L645.9,421.4z"/>
											</g>
										</g>
									</g>
								</g>
								<g>
									<g>
										<g>
											<path class="st7" d="M597,479.3c0.2,0.5-1.1,1-2.7,1h-21.4c-1.7,0-3.1-0.5-3.3-1l-1.1-4.1c-0.2-0.6,1.1-1,2.7-1h21.2
												c1.6,0,3.1,0.4,3.3,1L597,479.3z"/>
										</g>
									</g>
								</g>
								<g>
									<g>
										<g>
											<path class="st7" d="M628.4,470.1h-25.9c-1.6,0-2.8,0.5-2.7,1l1.3,4.1l1.1,3.5l0.2,0.6c0.2,0.5,1.7,1,3.3,1h26.3
												c1.7,0,2.9-0.5,2.6-1l-0.2-0.6l-1.3-3.5l-1.5-4.1C631.5,470.5,630,470.1,628.4,470.1z"/>
										</g>
									</g>
								</g>
								<g>
									<g>
										<g>
											<path class="st7" d="M667.5,479.3c0.2,0.5-0.9,1-2.6,1h-21.3c-1.7,0-3.2-0.5-3.4-1l-1.5-4.1c-0.2-0.6,1-1,2.6-1h21.2
												c1.7,0,3.2,0.4,3.4,1L667.5,479.3z"/>
										</g>
									</g>
								</g>
								<g>
									<g>
										<g>
											<path class="st7" d="M172.6,479.5c-0.2,0.5-1.7,0.9-3.3,0.9h-25.3c-1.6,0-2.7-0.4-2.5-0.9l3.6-8.5c0.2-0.5,1.7-1,3.2-1
												h25c1.6,0,2.7,0.4,2.5,1L172.6,479.5z"/>
										</g>
									</g>
								</g>
								<g>
									<g>
										<g>
											<g>
												<path class="st7" d="M262.5,465c-0.1,0.5-1.5,0.9-3,0.9h-24.9c-1.6,0-2.7-0.4-2.6-0.9l2.4-8.5c0.1-0.5,1.5-1,3-1h24.4
													c1.5,0,2.7,0.4,2.6,1L262.5,465z"/>
											</g>
										</g>
									</g>
									<g>
										<g>
											<g>
												<path class="st7" d="M301.3,465c-0.1,0.5-1.4,0.9-3,0.9h-24.9c-1.6,0-2.7-0.4-2.6-0.9l1.8-8.5c0.1-0.5,1.5-1,3-1h24.4
													c1.5,0,2.7,0.4,2.6,1L301.3,465z"/>
											</g>
										</g>
									</g>
									<g>
										<g>
											<g>
												<path class="st7" d="M340.1,465c-0.1,0.5-1.4,0.9-3,0.9h-24.8c-1.5,0-2.8-0.4-2.7-0.9l1.3-8.5c0.1-0.5,1.4-1,2.9-1h24.4
													c1.6,0,2.7,0.4,2.7,1L340.1,465z"/>
											</g>
										</g>
									</g>
									<g>
										<g>
											<g>
												<path class="st7" d="M378.8,465c0,0.5-1.3,0.9-2.9,0.9h-24.8c-1.6,0-2.8-0.4-2.7-0.9l0.8-8.5c0.1-0.5,1.3-1,2.9-1h24.4
													c1.5,0,2.8,0.4,2.7,1L378.8,465z"/>
											</g>
										</g>
									</g>
									<g>
										<g>
											<g>
												<path class="st7" d="M417.6,465c0,0.5-1.2,0.9-2.8,0.9H390c-1.6,0-2.8-0.4-2.8-0.9l0.2-8.5c0-0.5,1.3-1,2.8-1h24.4
													c1.6,0,2.8,0.4,2.8,1L417.6,465z"/>
											</g>
										</g>
									</g>
									<g>
										<g>
											<g>
												<path class="st7" d="M456.4,465c0,0.5-1.2,0.9-2.8,0.9h-24.8c-1.6,0-2.8-0.4-2.9-0.9l-0.3-8.5c0-0.5,1.2-1,2.7-1h24.4
													c1.5,0,2.8,0.4,2.9,1L456.4,465z"/>
											</g>
										</g>
									</g>
									<g>
										<g>
											<g>
												<path class="st7" d="M495.1,465c0.1,0.5-1.1,0.9-2.7,0.9h-24.8c-1.6,0-2.9-0.4-2.9-0.9l-0.8-8.5c-0.1-0.5,1.1-1,2.7-1
													h24.4c1.5,0,2.9,0.4,2.9,1L495.1,465z"/>
											</g>
										</g>
									</g>
									<g>
										<g>
											<g>
												<path class="st7" d="M533.9,465c0.1,0.5-1.1,0.9-2.7,0.9h-24.8c-1.6,0-2.9-0.4-3-0.9l-1.3-8.5c-0.1-0.5,1.1-1,2.6-1
													h24.4c1.5,0,2.9,0.4,3,1L533.9,465z"/>
											</g>
										</g>
									</g>
									<g>
										<g>
											<g>
												<path class="st7" d="M572.6,465c0.1,0.5-1,0.9-2.6,0.9h-24.8c-1.6,0-3-0.4-3.1-0.9l-1.9-8.5c-0.1-0.5,1-1,2.6-1h24.4
													c1.5,0,2.9,0.4,3.1,1L572.6,465z"/>
											</g>
										</g>
									</g>
								</g>
								<g>
									<g>
										<g>
											<g>
												<path class="st7" d="M197.6,406.8c-0.2,0.6-1.7,1-3.2,1h-23.6c-1.6,0-2.6-0.5-2.4-1l1.6-3.9c0.2-0.6,1.7-1,3.2-1h23.4
													c1.6,0,2.6,0.5,2.4,1L197.6,406.8z"/>
											</g>
										</g>
										<g>
											<g>
												<path class="st7" d="M237.9,406.8c-0.2,0.6-1.6,1-3.1,1h-23.6c-1.6,0-2.7-0.5-2.5-1l1.4-3.9c0.2-0.6,1.6-1,3.1-1h23.4
													c1.6,0,2.7,0.5,2.5,1L237.9,406.8z"/>
											</g>
										</g>
										<g>
											<g>
												<path class="st7" d="M278.1,406.8c-0.1,0.6-1.5,1-3,1h-23.6c-1.6,0-2.7-0.5-2.5-1l1.1-3.9c0.1-0.6,1.5-1,3.1-1h23.4
													c1.5,0,2.6,0.5,2.5,1L278.1,406.8z"/>
											</g>
										</g>
										<g>
											<g>
												<path class="st7" d="M318.4,406.8c-0.1,0.6-1.4,1-3,1h-23.7c-1.5,0-2.7-0.5-2.6-1l0.8-3.9c0.1-0.6,1.5-1,3-1h23.4
													c1.5,0,2.7,0.5,2.6,1L318.4,406.8z"/>
											</g>
										</g>
										<g>
											<g>
												<path class="st7" d="M358.6,406.8c0,0.6-1.3,1-2.9,1h-23.6c-1.6,0-2.7-0.5-2.7-1l0.5-3.9c0.1-0.6,1.4-1,2.9-1h23.4
													c1.5,0,2.7,0.5,2.7,1L358.6,406.8z"/>
											</g>
										</g>
										<g>
											<g>
												<path class="st7" d="M398.9,406.8c0,0.6-1.3,1-2.8,1h-23.6c-1.5,0-2.8-0.5-2.7-1l0.2-3.9c0-0.6,1.3-1,2.8-1h23.4
													c1.6,0,2.8,0.5,2.8,1L398.9,406.8z"/>
											</g>
										</g>
										<g>
											<g>
												<path class="st7" d="M439.2,406.8c0,0.6-1.2,1-2.7,1h-23.6c-1.6,0-2.8-0.5-2.8-1l0-3.9c0-0.6,1.2-1,2.8-1h23.4
													c1.5,0,2.8,0.5,2.8,1L439.2,406.8z"/>
											</g>
										</g>
										<g>
											<g>
												<path class="st7" d="M479.4,406.8c0.1,0.6-1.1,1-2.7,1h-23.6c-1.5,0-2.8-0.5-2.9-1l-0.3-3.9c-0.1-0.6,1.2-1,2.7-1H476
													c1.5,0,2.9,0.5,2.9,1L479.4,406.8z"/>
											</g>
										</g>
										<g>
											<g>
												<path class="st7" d="M519.7,406.8c0.1,0.6-1.1,1-2.6,1h-23.6c-1.6,0-2.9-0.5-3-1l-0.6-3.9c-0.1-0.6,1.1-1,2.6-1h23.4
													c1.5,0,2.9,0.5,3,1L519.7,406.8z"/>
											</g>
										</g>
										<g>
											<g>
												<path class="st7" d="M559.9,406.8c0.2,0.6-1,1-2.5,1h-23.6c-1.6,0-2.9-0.5-3-1l-0.9-3.9c-0.1-0.6,1-1,2.5-1h23.4
													c1.5,0,2.9,0.5,3.1,1L559.9,406.8z"/>
											</g>
										</g>
										<g>
											<g>
												<path class="st7" d="M600.2,406.8c0.2,0.6-0.9,1-2.4,1h-23.6c-1.5,0-3-0.5-3.1-1l-1.1-3.9c-0.2-0.6,0.9-1,2.5-1h23.4
													c1.5,0,2.9,0.5,3.2,1L600.2,406.8z"/>
											</g>
										</g>
										<g>
											<g>
												<path class="st7" d="M640.5,406.8c0.2,0.6-0.8,1-2.4,1h-23.6c-1.6,0-3-0.5-3.2-1l-1.4-3.9c-0.2-0.6,0.8-1,2.4-1h23.4
													c1.5,0,3,0.5,3.2,1L640.5,406.8z"/>
											</g>
										</g>
									</g>
								</g>
								<g>
									<g>
										<g>
											<path class="st7" d="M242.7,436c-0.1,0.5-1.5,1-3,1h-23.8c-1.5,0-2.6-0.4-2.4-1l2.7-8.5c0.2-0.5,1.5-1,3-1h23.4
												c1.5,0,2.5,0.4,2.4,1L242.7,436z"/>
										</g>
									</g>
									<g>
										<g>
											<path class="st7" d="M279.8,436c-0.1,0.5-1.4,1-2.9,1h-23.8c-1.5,0-2.6-0.4-2.4-1l2.2-8.5c0.1-0.5,1.4-1,2.9-1h23.4
												c1.5,0,2.6,0.4,2.5,1L279.8,436z"/>
										</g>
									</g>
									<g>
										<g>
											<path class="st7" d="M317,436c-0.1,0.5-1.4,1-2.9,1h-23.8c-1.5,0-2.6-0.4-2.5-1l1.7-8.5c0.1-0.5,1.4-1,2.9-1h23.4
												c1.5,0,2.6,0.4,2.5,1L317,436z"/>
										</g>
									</g>
									<g>
										<g>
											<path class="st7" d="M354.1,436c0,0.5-1.3,1-2.8,1h-23.8c-1.5,0-2.7-0.4-2.6-1l1.1-8.5c0-0.5,1.3-1,2.8-1h23.4
												c1.5,0,2.6,0.4,2.6,1L354.1,436z"/>
										</g>
									</g>
									<g>
										<g>
											<path class="st7" d="M391.2,436c0,0.5-1.2,1-2.7,1h-23.8c-1.5,0-2.7-0.4-2.6-1l0.6-8.5c0-0.5,1.3-1,2.7-1h23.4
												c1.5,0,2.7,0.4,2.7,1L391.2,436z"/>
										</g>
									</g>
									<g>
										<g>
											<path class="st7" d="M428.4,436c0,0.5-1.2,1-2.7,1h-23.8c-1.5,0-2.7-0.4-2.7-1l0.1-8.5c0-0.5,1.2-1,2.7-1h23.4
												c1.5,0,2.7,0.4,2.7,1L428.4,436z"/>
										</g>
									</g>
									<g>
										<g>
											<path class="st7" d="M465.5,436c0.1,0.5-1.1,1-2.6,1h-23.8c-1.5,0-2.8-0.4-2.8-1l-0.5-8.5c0-0.5,1.1-1,2.6-1h23.4
												c1.5,0,2.7,0.4,2.8,1L465.5,436z"/>
										</g>
									</g>
									<g>
										<g>
											<path class="st7" d="M502.7,436c0.1,0.5-1,1-2.6,1h-23.8c-1.5,0-2.8-0.4-2.8-1l-1-8.5c-0.1-0.5,1.1-1,2.6-1h23.3
												c1.5,0,2.8,0.4,2.9,1L502.7,436z"/>
										</g>
									</g>
									<g>
										<g>
											<path class="st7" d="M539.8,436c0.1,0.5-1,1-2.5,1h-23.8c-1.5,0-2.8-0.4-2.9-1l-1.5-8.5c-0.1-0.5,1-1,2.5-1H535
												c1.5,0,2.8,0.4,2.9,1L539.8,436z"/>
										</g>
									</g>
									<g>
										<g>
											<path class="st7" d="M577,436c0.1,0.5-0.9,1-2.4,1h-23.8c-1.5,0-2.8-0.4-2.9-1l-2.1-8.5c-0.1-0.5,1-1,2.4-1h23.4
												c1.5,0,2.8,0.4,3,1L577,436z"/>
										</g>
									</g>
									<g>
										<g>
											<path class="st7" d="M614.1,436c0.2,0.5-0.9,1-2.4,1h-23.8c-1.5,0-2.8-0.4-3-1l-2.6-8.5c-0.2-0.5,0.9-1,2.4-1h23.4
												c1.5,0,2.8,0.4,3,1L614.1,436z"/>
										</g>
									</g>
									<g>
										<g>
											<path class="st7" d="M651.3,436c0.2,0.5-0.8,1-2.3,1h-23.8c-1.5,0-2.9-0.4-3.1-1l-3.1-8.5c-0.2-0.5,0.9-1,2.3-1h23.4
												c1.5,0,2.9,0.4,3.1,1L651.3,436z"/>
										</g>
									</g>
								</g>
								<g>
									<g>
										<g>
											<g>
												<path class="st7" d="M246.9,450.5c-0.1,0.5-1.5,1-3,1h-24.3c-1.5,0-2.6-0.4-2.5-1l2.6-8.5c0.2-0.5,1.5-1,3-1h23.9
													c1.5,0,2.6,0.4,2.5,1L246.9,450.5z"/>
											</g>
										</g>
									</g>
									<g>
										<g>
											<g>
												<path class="st7" d="M284.8,450.5c-0.1,0.5-1.4,1-3,1h-24.3c-1.6,0-2.7-0.4-2.5-1l2.1-8.5c0.1-0.5,1.5-1,3-1H284
													c1.5,0,2.6,0.4,2.5,1L284.8,450.5z"/>
											</g>
										</g>
									</g>
									<g>
										<g>
											<g>
												<path class="st7" d="M322.8,450.5c-0.1,0.5-1.4,1-2.9,1h-24.3c-1.5,0-2.7-0.4-2.6-1l1.6-8.5c0.1-0.5,1.4-1,2.9-1h23.9
													c1.5,0,2.7,0.4,2.6,1L322.8,450.5z"/>
											</g>
										</g>
									</g>
									<g>
										<g>
											<g>
												<path class="st7" d="M360.8,450.5c0,0.5-1.3,1-2.8,1h-24.3c-1.5,0-2.7-0.4-2.7-1l1-8.5c0.1-0.5,1.3-1,2.9-1h23.9
													c1.5,0,2.7,0.4,2.7,1L360.8,450.5z"/>
											</g>
										</g>
									</g>
									<g>
										<g>
											<g>
												<path class="st7" d="M398.7,450.5c0,0.5-1.2,1-2.8,1h-24.3c-1.5,0-2.7-0.4-2.7-1l0.5-8.5c0-0.5,1.3-1,2.8-1H396
													c1.5,0,2.7,0.4,2.7,1L398.7,450.5z"/>
											</g>
										</g>
									</g>
									<g>
										<g>
											<g>
												<path class="st7" d="M436.7,450.5c0,0.5-1.2,1-2.7,1h-24.3c-1.5,0-2.8-0.4-2.8-1l0-8.5c0-0.5,1.2-1,2.7-1h23.9
													c1.5,0,2.7,0.4,2.7,1L436.7,450.5z"/>
											</g>
										</g>
									</g>
									<g>
										<g>
											<g>
												<path class="st7" d="M474.6,450.5c0,0.5-1.1,1-2.7,1h-24.3c-1.5,0-2.8-0.4-2.8-1l-0.6-8.5c0-0.5,1.2-1,2.7-1h23.9
													c1.5,0,2.8,0.4,2.9,1L474.6,450.5z"/>
											</g>
										</g>
									</g>
									<g>
										<g>
											<g>
												<path class="st7" d="M512.6,450.5c0.1,0.5-1.1,1-2.6,1h-24.3c-1.5,0-2.8-0.4-2.9-1l-1.1-8.5c-0.1-0.5,1.1-1,2.6-1h23.9
													c1.5,0,2.8,0.4,2.9,1L512.6,450.5z"/>
											</g>
										</g>
									</g>
									<g>
										<g>
											<g>
												<path class="st7" d="M550.5,450.5c0.1,0.5-1,1-2.5,1h-24.3c-1.5,0-2.8-0.4-2.9-1l-1.6-8.5c-0.1-0.5,1-1,2.5-1h23.9
													c1.5,0,2.8,0.4,3,1L550.5,450.5z"/>
											</g>
										</g>
									</g>
									<g>
										<g>
											<g>
												<path class="st7" d="M588.5,450.5c0.2,0.5-0.9,1-2.5,1h-24.3c-1.6,0-2.9-0.4-3.1-1l-2.2-8.5c-0.1-0.5,1-1,2.5-1h23.9
													c1.5,0,2.9,0.4,3,1L588.5,450.5z"/>
											</g>
										</g>
									</g>
								</g>
							</g>
						</g>
					</g>
					<g>
						<path class="st8" d="M410.9,20.6c0,3.1-2.5,5.6-5.6,5.6c-3.1,0-5.6-2.5-5.6-5.6c0-3.1,2.5-5.6,5.6-5.6
							C408.4,15,410.9,17.5,410.9,20.6z"/>
					</g>
				</g>
			</g>
		</g>
		<g>
			<g>
				<rect x="137.6" y="373.7" class="st1" width="540" height="10.2"/>
			</g>
		</g>
	</g>
	<rect x="144.2" y="149.5" class="st9" width="522.3" height="109"/>
	<g>
		<g>
			<g>
				<g>
					<rect x="372.2" y="53.1" class="st10" width="77.5" height="9.3"/>
				</g>
				<g>
					<rect x="372.2" y="76.7" class="st11" width="171.2" height="9.3"/>
				</g>
				<g>
					<rect x="372.2" y="99.6" class="st11" width="171.2" height="9.3"/>
				</g>
				<g>
					<rect x="372.2" y="122.5" class="st11" width="171.2" height="9.3"/>
				</g>
				<g>
					<g>
						<g>
							<g>
								<path class="st11" d="M279.5,131.8c-3.3,0-6.4-1.3-8.8-3.6c-2.3-2.3-3.6-5.5-3.6-8.8l0-53.8c0-6.8,5.6-12.4,12.4-12.4h53.8
									c6.8,0,12.4,5.6,12.4,12.4l0,53.8c0,3.3-1.3,6.4-3.6,8.8c-2.3,2.3-5.5,3.6-8.8,3.6L279.5,131.8z M279.5,61.8
									c-1,0-1.9,0.4-2.6,1.1c-0.7,0.7-1.1,1.6-1.1,2.6l0,53.8c0,2,1.7,3.7,3.7,3.7h53.8c2,0,3.7-1.7,3.7-3.7l0-53.8
									c0-2-1.7-3.7-3.7-3.7h0L279.5,61.8z"/>
							</g>
						</g>
					</g>
				</g>
			</g>
		</g>
		<g>
			<g>
				<g>
					<rect x="372.2" y="164.7" class="st12" width="77.5" height="9.3"/>
				</g>
				<g>
					<rect x="372.2" y="188.2" class="st12" width="171.2" height="9.3"/>
				</g>
				<g>
					<rect x="372.2" y="211.1" class="st12" width="171.2" height="9.3"/>
				</g>
				<g>
					<rect x="372.2" y="234" class="st12" width="171.2" height="9.3"/>
				</g>
				<g>
					<g>
						<g>
							<g>
								<path class="st2" d="M279.5,243.3c-3.3,0-6.4-1.3-8.8-3.6c-2.3-2.3-3.6-5.5-3.6-8.8l0-53.8c0-6.8,5.6-12.4,12.4-12.4h53.8
									c6.8,0,12.4,5.6,12.4,12.4l0,53.8c0,3.3-1.3,6.4-3.6,8.8c-2.3,2.3-5.5,3.6-8.8,3.6L279.5,243.3z M279.5,173.4
									c-1,0-1.9,0.4-2.6,1.1c-0.7,0.7-1.1,1.6-1.1,2.6l0,53.8c0,2,1.7,3.7,3.7,3.7h53.8c2,0,3.7-1.7,3.7-3.7l0-53.8
									c0-2-1.7-3.7-3.7-3.7h0L279.5,173.4z"/>
							</g>
						</g>
					</g>
					<g>
						<g>
							<polygon class="st2" points="281.6,203.2 288.5,195.9 302,208.7 324.1,185.7 331.4,192.7 302.3,223 							"/>
						</g>
					</g>
				</g>
			</g>
		</g>
		<g>
			<g>
				<g>
					<rect x="372.2" y="276.2" class="st10" width="77.5" height="9.3"/>
				</g>
				<g>
					<rect x="372.2" y="299.7" class="st11" width="171.2" height="9.3"/>
				</g>
				<g>
					<rect x="372.2" y="322.6" class="st11" width="171.2" height="9.3"/>
				</g>
				<g>
					<rect x="372.2" y="345.5" class="st11" width="171.2" height="9.3"/>
				</g>
				<g>
					<g>
						<g>
							<g>
								<path class="st11" d="M279.5,354.8c-3.3,0-6.4-1.3-8.8-3.6c-2.3-2.3-3.6-5.5-3.6-8.8l0-53.8c0-6.8,5.6-12.4,12.4-12.4h53.8
									c6.8,0,12.4,5.6,12.4,12.4l0,53.8c0,3.3-1.3,6.4-3.6,8.8c-2.3,2.3-5.5,3.6-8.8,3.6L279.5,354.8z M279.5,284.9
									c-1,0-1.9,0.4-2.6,1.1c-0.7,0.7-1.1,1.6-1.1,2.6l0,53.8c0,2,1.7,3.7,3.7,3.7h53.8c2,0,3.7-1.7,3.7-3.7l0-53.8
									c0-2-1.7-3.7-3.7-3.7h0L279.5,284.9z"/>
							</g>
						</g>
					</g>
				</g>
			</g>
		</g>
	</g>
</g>
</svg>
