<?xml version="1.0" encoding="utf-8"?>
<!-- Generator: Adobe Illustrator 26.5.0, SVG Export Plug-In . SVG Version: 6.00 Build 0)  -->
<svg version="1.1" id="Layer_1" xmlns="http://www.w3.org/2000/svg" xmlns:xlink="http://www.w3.org/1999/xlink" x="0px" y="0px"
	 width="4317.3px" height="1052.8px" viewBox="0 0 4317.3 1052.8" style="enable-background:new 0 0 4317.3 1052.8;"
	 xml:space="preserve">
<style type="text/css">
	.st0{fill-rule:evenodd;clip-rule:evenodd;fill:#F3A533;}
	.st1{fill-rule:evenodd;clip-rule:evenodd;fill:#FFFFFF;}
	.st2{fill:#FFFFFF;}
</style>
<g>
	<rect x="3822" y="128.3" class="st0" width="260" height="752.2"/>
	<rect x="3822" y="801.6" class="st1" width="260" height="53.7"/>
	<rect x="3822" y="756.8" class="st1" width="260" height="23.5"/>
	<g>
		<path class="st2" d="M3986,661.9v13.3h-64.5v-13.3H3986z"/>
		<path class="st2" d="M3938.1,638.6l5.5-0.4c-2.1-1.7-3.7-3.6-4.8-6c-1.1-2.3-1.7-4.9-1.7-7.8c0-2.3,0.3-4.3,1-6.2
			c0.6-1.9,1.7-3.5,3.1-4.8c1.4-1.3,3.3-2.4,5.7-3.1c2.3-0.7,5.2-1.1,8.6-1.1h30.5v12.8h-30.6c-1.5,0-2.8,0.2-3.8,0.5
			c-1,0.3-1.8,0.8-2.4,1.5c-0.6,0.7-1,1.4-1.3,2.4c-0.3,0.9-0.4,2-0.4,3.3c0,1.9,0.4,3.5,1.2,4.8c0.8,1.3,1.9,2.4,3.4,3.3h33.8v12.8
			h-47.9V638.6z"/>
		<path class="st2" d="M3986,596.1h-38.5v7.1h-9.4v-7.1h-4.2c-2.7,0-5.1-0.4-7.2-1.2c-2.1-0.8-3.9-2-5.3-3.5
			c-1.4-1.5-2.5-3.4-3.3-5.5c-0.7-2.2-1.1-4.6-1.1-7.3c0-1.2,0.1-2.3,0.3-3.3c0.2-1.1,0.4-2.1,0.6-3.2l9.9,0.1
			c-0.3,1.1-0.4,2.4-0.4,3.9c0,2.3,0.6,4.1,1.7,5.3c1.1,1.3,2.7,1.9,4.8,1.9h4.2v-9.5h9.4v9.5h38.5V596.1z"/>
		<path class="st2" d="M3961.6,569.1c-3.5,0-6.7-0.5-9.7-1.5c-3-1-5.6-2.5-7.7-4.4c-2.2-1.9-3.9-4.3-5.1-7.1c-1.2-2.8-1.9-6-1.9-9.6
			c0-3.6,0.6-6.9,1.9-9.7c1.2-2.8,2.9-5.2,5.1-7.2c2.2-1.9,4.7-3.4,7.7-4.4c3-1,6.2-1.5,9.7-1.5h0.9c3.5,0,6.8,0.5,9.7,1.5
			c3,1,5.5,2.5,7.7,4.4c2.2,1.9,3.9,4.3,5.1,7.1c1.2,2.8,1.8,6,1.8,9.7s-0.6,6.9-1.8,9.7c-1.2,2.8-2.9,5.2-5.1,7.1
			c-2.2,1.9-4.7,3.4-7.7,4.4c-3,1-6.2,1.5-9.7,1.5H3961.6z M3962.5,556.3c1.9,0,3.8-0.2,5.5-0.5s3.2-0.9,4.5-1.7
			c1.3-0.8,2.3-1.8,3-3.1c0.7-1.3,1.1-2.8,1.1-4.6c0-1.8-0.4-3.3-1.1-4.5c-0.7-1.3-1.7-2.3-3-3.1c-1.3-0.8-2.7-1.4-4.5-1.7
			c-1.7-0.4-3.5-0.5-5.5-0.5h-0.9c-1.9,0-3.7,0.2-5.4,0.5c-1.7,0.4-3.2,0.9-4.5,1.7c-1.3,0.8-2.3,1.8-3.1,3.1
			c-0.8,1.3-1.1,2.8-1.1,4.6c0,1.8,0.4,3.3,1.1,4.5s1.8,2.3,3.1,3.1c1.3,0.8,2.8,1.4,4.5,1.7c1.7,0.4,3.5,0.5,5.4,0.5H3962.5z"/>
		<path class="st2" d="M3950.1,488.9c-0.1,0.6-0.2,1.4-0.2,2.3c-0.1,0.9-0.1,1.6-0.1,2.3c0,2.5,0.4,4.5,1.3,6.1
			c0.8,1.5,2.1,2.7,3.7,3.4h31.4v12.8h-47.9v-12.1l5.7-0.4c-2.1-1.2-3.7-2.7-4.8-4.5c-1.2-1.8-1.7-3.8-1.7-6.2
			c0-0.7,0.1-1.4,0.2-2.1c0.1-0.8,0.3-1.4,0.4-1.8L3950.1,488.9z"/>
		<path class="st2" d="M3938.1,470.7l5.4-0.4c-1.9-1.6-3.5-3.5-4.6-5.8c-1.1-2.3-1.7-4.9-1.7-7.9c0-2.9,0.6-5.4,1.7-7.6
			c1.2-2.2,3-3.9,5.6-5.1c-2.3-1.6-4.1-3.5-5.4-5.9c-1.3-2.4-1.9-5.2-1.9-8.5c0-2.3,0.3-4.5,1-6.4s1.7-3.5,3.1-4.9
			c1.4-1.3,3.3-2.4,5.6-3.1c2.3-0.7,5.2-1.1,8.5-1.1h30.5v12.8h-30.5c-1.6,0-2.9,0.2-3.9,0.5c-1,0.3-1.8,0.8-2.4,1.4
			c-0.6,0.6-1,1.4-1.2,2.3c-0.2,0.9-0.3,1.9-0.3,3c0,2,0.5,3.6,1.5,5c1,1.3,2.3,2.3,4,3c0.1,0,0.3,0,0.5,0c0.2,0,0.3,0,0.5,0h31.9
			v12.8h-30.4c-1.6,0-2.9,0.2-3.9,0.5c-1,0.3-1.8,0.8-2.4,1.4s-1,1.4-1.2,2.3c-0.2,0.9-0.4,1.9-0.4,3c0,1.9,0.4,3.5,1.2,4.8
			c0.8,1.3,1.9,2.3,3.3,3.1h33.9v12.8h-47.9V470.7z"/>
		<path class="st2" d="M3986,376.5c-1.2,0.6-2.6,1-4.3,1.3c1.4,1.3,2.7,2.9,3.7,4.9c1,2,1.5,4.4,1.5,7.2c0,2.3-0.4,4.5-1.1,6.4
			c-0.7,2-1.7,3.7-3,5.2c-1.3,1.5-2.8,2.6-4.5,3.4c-1.8,0.8-3.7,1.2-5.8,1.2c-2.5,0-4.7-0.5-6.7-1.4c-1.9-0.9-3.6-2.3-5-4.2
			c-1.4-1.9-2.4-4.2-3.1-6.9c-0.7-2.8-1.1-6-1.1-9.6v-5.7h-2.7c-2.2,0-4,0.6-5.3,1.7c-1.3,1.1-2,2.9-2,5.4c0,2.2,0.5,3.8,1.5,5.1
			c1,1.2,2.5,1.8,4.3,1.8v12.8c-2.1,0-4-0.5-5.9-1.4c-1.9-1-3.5-2.3-4.9-4.1s-2.5-3.9-3.3-6.4c-0.8-2.5-1.2-5.3-1.2-8.4
			c0-2.8,0.4-5.3,1.1-7.7c0.7-2.4,1.8-4.4,3.2-6.1c1.4-1.7,3.2-3,5.3-4c2.1-1,4.6-1.4,7.4-1.4h20.3c1.4,0,2.6,0,3.7-0.1
			c1.1-0.1,2.1-0.2,2.9-0.4c0.9-0.1,1.7-0.3,2.3-0.6c0.7-0.2,1.4-0.5,2-0.8h0.8V376.5z M3977.1,387c0-1.1-0.1-2.1-0.4-3
			c-0.3-0.9-0.6-1.8-1-2.5c-0.4-0.7-0.9-1.4-1.5-1.9c-0.6-0.5-1.1-1-1.7-1.3h-8.2v5.3c0,1.7,0.2,3.1,0.6,4.4
			c0.4,1.2,0.9,2.3,1.6,3.1c0.7,0.8,1.4,1.4,2.3,1.8c0.9,0.4,1.9,0.6,2.9,0.6c1.6,0,2.9-0.6,3.9-1.7
			C3976.6,390.5,3977.1,389,3977.1,387z"/>
		<path class="st2" d="M3926.3,340.3h11.8v-8.2h9.4v8.2h23.9c1,0,1.8-0.1,2.5-0.3c0.6-0.2,1.2-0.5,1.5-0.9c0.4-0.4,0.6-0.9,0.8-1.5
			c0.1-0.6,0.2-1.3,0.2-2.1c0-0.8,0-1.5-0.1-2.1c-0.1-0.6-0.1-1.2-0.2-1.7h9.7c0.3,1.1,0.6,2.2,0.8,3.5c0.2,1.3,0.3,2.7,0.3,4.3
			c0,2.1-0.3,4-0.8,5.7c-0.5,1.7-1.3,3.1-2.5,4.3c-1.1,1.2-2.6,2.1-4.4,2.8c-1.8,0.6-4,1-6.5,1h-25.3v7h-9.4v-7h-11.8V340.3z"/>
		<path class="st2" d="M3925.7,325c-1.9,0-3.5-0.6-4.7-1.9c-1.2-1.3-1.9-3-1.9-5.2c0-1.1,0.2-2.1,0.5-3s0.8-1.6,1.4-2.3
			c0.6-0.6,1.3-1.1,2.1-1.4c0.8-0.3,1.7-0.5,2.6-0.5c1,0,1.9,0.2,2.7,0.5c0.8,0.3,1.5,0.8,2.1,1.4c0.6,0.6,1,1.4,1.4,2.3
			s0.5,1.9,0.5,3c0,1.1-0.2,2.1-0.5,3s-0.8,1.6-1.4,2.3s-1.3,1.1-2.1,1.4C3927.5,324.9,3926.6,325,3925.7,325z M3986,311.4v12.8
			h-47.9v-12.8H3986z"/>
		<path class="st2" d="M3961.6,302.9c-3.5,0-6.7-0.5-9.7-1.5c-3-1-5.6-2.5-7.7-4.4c-2.2-1.9-3.9-4.3-5.1-7.1c-1.2-2.8-1.9-6-1.9-9.6
			c0-3.6,0.6-6.9,1.9-9.7c1.2-2.8,2.9-5.2,5.1-7.2c2.2-1.9,4.7-3.4,7.7-4.4c3-1,6.2-1.5,9.7-1.5h0.9c3.5,0,6.8,0.5,9.7,1.5
			c3,1,5.5,2.5,7.7,4.4c2.2,1.9,3.9,4.3,5.1,7.1c1.2,2.8,1.8,6,1.8,9.7c0,3.6-0.6,6.9-1.8,9.7c-1.2,2.8-2.9,5.2-5.1,7.1
			c-2.2,1.9-4.7,3.4-7.7,4.4c-3,1-6.2,1.5-9.7,1.5H3961.6z M3962.5,290.1c1.9,0,3.8-0.2,5.5-0.5s3.2-0.9,4.5-1.7
			c1.3-0.8,2.3-1.8,3-3.1c0.7-1.3,1.1-2.8,1.1-4.6c0-1.8-0.4-3.3-1.1-4.5c-0.7-1.3-1.7-2.3-3-3.1c-1.3-0.8-2.7-1.4-4.5-1.7
			c-1.7-0.4-3.5-0.5-5.5-0.5h-0.9c-1.9,0-3.7,0.2-5.4,0.5c-1.7,0.4-3.2,0.9-4.5,1.7c-1.3,0.8-2.3,1.8-3.1,3.1
			c-0.8,1.3-1.1,2.8-1.1,4.6c0,1.8,0.4,3.3,1.1,4.5s1.8,2.3,3.1,3.1c1.3,0.8,2.8,1.4,4.5,1.7c1.7,0.4,3.5,0.5,5.4,0.5H3962.5z"/>
		<path class="st2" d="M3938.1,237.8l5.5-0.4c-2.1-1.7-3.7-3.6-4.8-6c-1.1-2.3-1.7-4.9-1.7-7.8c0-2.3,0.3-4.3,1-6.2
			c0.6-1.9,1.7-3.5,3.1-4.8c1.4-1.3,3.3-2.4,5.7-3.1c2.3-0.7,5.2-1.1,8.6-1.1h30.5v12.8h-30.6c-1.5,0-2.8,0.2-3.8,0.5
			c-1,0.3-1.8,0.8-2.4,1.5c-0.6,0.6-1,1.4-1.3,2.4c-0.3,0.9-0.4,2-0.4,3.3c0,1.9,0.4,3.5,1.2,4.8c0.8,1.3,1.9,2.4,3.4,3.3h33.8v12.8
			h-47.9V237.8z"/>
	</g>
</g>
</svg>
